[
	{
		"objectId": "D4D22CB9-2CD9-4EBC-9342-8FD03C08392F",
		"kind": "group",
		"name": "orange_primary_button_default",
		"originalName": "orange-primary-button-default",
		"maskFrame": null,
		"layerFrame": {
			"x": 0,
			"y": 0,
			"width": 65,
			"height": 35
		},
		"visible": true,
		"metadata": {
			"opacity": 1
		},
		"image": {
			"path": "images/Layer-orange_primary_button_default-rdremjjd.png",
			"frame": {
				"x": 0,
				"y": 0,
				"width": 65,
				"height": 35
			}
		},
		"children": []
	}
]