{
  "_class": "shapePath",
  "booleanOperation": -1,
  "do_objectID": "8CB395DE-03F0-4C46-8E4F-E087316C21FF",
  "edited": true,
  "exportOptions": {
    "_class": "exportOptions",
    "exportFormats": [
    ],
    "includedLayerIds": [
    ],
    "layerOptions": 0,
    "shouldTrim": false
  },
  "frame": {
    "_class": "rect",
    "constrainProportions": false,
    "height": 5,
    "width": 4,
    "x": 7,
    "y": 4
  },
  "isFlippedHorizontal": false,
  "isFlippedVertical": false,
  "isLocked": false,
  "isVisible": true,
  "layerListExpandedType": 0,
  "name": "Path",
  "nameIsFixed": false,
  "path": {
    "_class": "path",
    "isClosed": true,
    "pointRadiusBehaviour": 1,
    "points": [
      {
        "_class": "curvePoint",
        "cornerRadius": 0,
        "curveFrom": "{0.5, 0.59999999999999998}",
        "curveMode": 1,
        "curveTo": "{0.5, 0.59999999999999998}",
        "hasCurveFrom": false,
        "hasCurveTo": false,
        "point": "{0.5, 0.59999999999999998}"
      },
      {
        "_class": "curvePoint",
        "cornerRadius": 0,
        "curveFrom": "{0.88807118745769831, 0.59999999999999998}",
        "curveMode": 4,
        "curveTo": "{0.75, 0.59999999999999998}",
        "hasCurveFrom": true,
        "hasCurveTo": false,
        "point": "{0.75, 0.59999999999999998}"
      },
      {
        "_class": "curvePoint",
        "cornerRadius": 0,
        "curveFrom": "{1, 0.91045694996615867}",
        "curveMode": 2,
        "curveTo": "{1, 0.68954305003384131}",
        "hasCurveFrom": true,
        "hasCurveTo": true,
        "point": "{1, 0.80000000000000004}"
      },
      {
        "_class": "curvePoint",
        "cornerRadius": 0,
        "curveFrom": "{0.75, 1}",
        "curveMode": 4,
        "curveTo": "{0.88807118745769831, 1}",
        "hasCurveFrom": false,
        "hasCurveTo": true,
        "point": "{0.75, 1}"
      },
      {
        "_class": "curvePoint",
        "cornerRadius": 0,
        "curveFrom": "{0.18096440627115085, 1}",
        "curveMode": 4,
        "curveTo": "{0.25, 1}",
        "hasCurveFrom": true,
        "hasCurveTo": false,
        "point": "{0.25, 1}"
      },
      {
        "_class": "curvePoint",
        "cornerRadius": 0,
        "curveFrom": "{0.027982203135575423, 0.90522847498307935}",
        "curveMode": 2,
        "curveTo": "{0.11846440627115085, 0.97761423749153953}",
        "hasCurveFrom": true,
        "hasCurveTo": true,
        "point": "{0.073223304703363024, 0.94142135623730927}"
      },
      {
        "_class": "curvePoint",
        "cornerRadius": 0,
        "curveFrom": "{0, 0.80000000000000004}",
        "curveMode": 4,
        "curveTo": "{0, 0.8552284749830793}",
        "hasCurveFrom": false,
        "hasCurveTo": true,
        "point": "{0, 0.80000000000000004}"
      },
      {
        "_class": "curvePoint",
        "cornerRadius": 0,
        "curveFrom": "{0, 0.089543050033841359}",
        "curveMode": 4,
        "curveTo": "{0, 0.20000000000000001}",
        "hasCurveFrom": true,
        "hasCurveTo": false,
        "point": "{0, 0.20000000000000001}"
      },
      {
        "_class": "curvePoint",
        "cornerRadius": 0,
        "curveFrom": "{0.38807118745769831, 0}",
        "curveMode": 2,
        "curveTo": "{0.11192881254230169, 0}",
        "hasCurveFrom": true,
        "hasCurveTo": true,
        "point": "{0.25, 0}"
      },
      {
        "_class": "curvePoint",
        "cornerRadius": 0,
        "curveFrom": "{0.5, 0.20000000000000001}",
        "curveMode": 4,
        "curveTo": "{0.5, 0.089543050033841359}",
        "hasCurveFrom": false,
        "hasCurveTo": true,
        "point": "{0.5, 0.20000000000000001}"
      }
    ]
  },
  "resizingConstraint": 63,
  "resizingType": 0,
  "rotation": 0,
  "shouldBreakMaskChain": false
}