{
  "_class": "group",
  "do_objectID": "DE7EEB42-D048-4512-9D74-9D492E669DE4",
  "exportOptions": {
    "_class": "exportOptions",
    "exportFormats": [
    ],
    "includedLayerIds": [
    ],
    "layerOptions": 0,
    "shouldTrim": false
  },
  "frame": {
    "_class": "rect",
    "constrainProportions": false,
    "height": 18,
    "width": 229,
    "x": 237,
    "y": 58
  },
  "hasClickThrough": false,
  "isFlippedHorizontal": false,
  "isFlippedVertical": false,
  "isLocked": false,
  "isVisible": true,
  "layerListExpandedType": 0,
  "layers": [
    {
      "class": "shapeGroup",
      "id": "C350FC29-EF54-46F3-922D-8E88DB125004"
    },
    {
      "class": "text",
      "id": "9F7D41FC-3CA2-43B3-851C-BD1FB77B78AD"
    },
    {
      "class": "text",
      "id": "EC56607F-5284-41F0-A512-EA609E704EA7"
    },
    {
      "class": "text",
      "id": "82689171-03EA-4EEA-A73B-36A533B03B49"
    },
    {
      "class": "text",
      "id": "826F97BF-7329-44B1-BBB4-3AE5C4C36FAF"
    },
    {
      "class": "text",
      "id": "C38C75E6-7D31-4AED-85CF-5AB9786609E9"
    }
  ],
  "name": "Breadcrumbs",
  "nameIsFixed": true,
  "resizingConstraint": 63,
  "resizingType": 0,
  "rotation": 0,
  "shouldBreakMaskChain": false,
  "style": {
    "_class": "style",
    "endDecorationType": 0,
    "miterLimit": 10,
    "startDecorationType": 0
  }
}