{
  "_class": "group",
  "do_objectID": "A5349B24-CDF3-473B-B239-ADDAC06691FE",
  "exportOptions": {
    "_class": "exportOptions",
    "exportFormats": [
    ],
    "includedLayerIds": [
    ],
    "layerOptions": 0,
    "shouldTrim": false
  },
  "frame": {
    "_class": "rect",
    "constrainProportions": false,
    "height": 82,
    "width": 1295,
    "x": 344,
    "y": 71
  },
  "hasClickThrough": false,
  "isFlippedHorizontal": false,
  "isFlippedVertical": false,
  "isLocked": false,
  "isVisible": true,
  "layerListExpandedType": 0,
  "layers": [
    {
      "class": "shapeGroup",
      "id": "1FBFF10C-47EA-4E75-A170-F88CCA98EC74"
    },
    {
      "class": "shapeGroup",
      "id": "CD6242BE-5DFA-483F-8A60-1F978ECC088B"
    },
    {
      "class": "symbolInstance",
      "id": "A9115D38-873A-4AC5-8D1B-ECEE24FDC6FF"
    },
    {
      "class": "symbolInstance",
      "id": "33D08911-1F6A-4BB7-BC11-72BD63298ABE"
    },
    {
      "class": "symbolInstance",
      "id": "3937363F-36E3-48F4-9E17-FD17F4AA644C"
    },
    {
      "class": "symbolInstance",
      "id": "0BE54706-FB89-462C-A1B7-6746CAE42B78"
    },
    {
      "class": "shapeGroup",
      "id": "FAE04F92-8723-4908-8EB8-B7CB1D79243C"
    },
    {
      "class": "symbolInstance",
      "id": "7E2D65C5-D300-4F03-9B09-3378F7A0BC9D"
    },
    {
      "class": "symbolInstance",
      "id": "606AA6A8-9426-41F8-A9C3-90FEBDDA8B52"
    },
    {
      "class": "symbolInstance",
      "id": "C50C8A79-CA1D-4984-8A97-0D02EA5DFF4A"
    },
    {
      "class": "symbolInstance",
      "id": "92E341F0-78B6-4F88-B3D2-D021642ECA69"
    },
    {
      "class": "symbolInstance",
      "id": "9C8481DE-94F5-4748-9FD7-03B6B4BBED58"
    },
    {
      "class": "symbolInstance",
      "id": "539549DF-D064-46AF-8487-5C89AA821C41"
    },
    {
      "class": "symbolInstance",
      "id": "E735DDB6-DEE4-4212-AD33-96F76534FFA2"
    },
    {
      "class": "symbolInstance",
      "id": "299C1BDF-EDD0-4A77-8B10-A25B22782D0E"
    },
    {
      "class": "symbolInstance",
      "id": "CCD133F4-DFF9-4F6F-8F76-3C2248CA0591"
    },
    {
      "class": "symbolInstance",
      "id": "FA32888B-EF9B-47A8-A6EB-0F9058EFFD1A"
    },
    {
      "class": "symbolInstance",
      "id": "2BE39126-80D9-48D5-A034-FF88E5939F65"
    },
    {
      "class": "symbolInstance",
      "id": "D8DEAFDE-DF08-4D0D-988C-B27FCE384BDF"
    },
    {
      "class": "symbolInstance",
      "id": "87AE1C60-5077-4BF5-A3F0-94A8D98971BB"
    },
    {
      "class": "symbolInstance",
      "id": "6FF19AE0-1347-469E-ABCB-EA961B32CAD7"
    },
    {
      "class": "symbolInstance",
      "id": "56668799-0EC5-4E3F-BDE3-35E97D9531C5"
    },
    {
      "class": "symbolInstance",
      "id": "1EF1D46F-D442-42BC-928B-ECFB0F32AD3E"
    },
    {
      "class": "symbolInstance",
      "id": "B10AA8F3-0A6C-42AA-B3B4-262F78AB3C94"
    },
    {
      "class": "symbolInstance",
      "id": "395BE836-1938-43CF-9C84-613A87A2C732"
    },
    {
      "class": "symbolInstance",
      "id": "9CFE576B-A268-480D-B6A6-DCEF4AC19D14"
    },
    {
      "class": "symbolInstance",
      "id": "D44583D5-3B9E-4D16-8481-231102112700"
    },
    {
      "class": "symbolInstance",
      "id": "40374D69-C2CC-4631-AEAF-16B057F2528B"
    },
    {
      "class": "symbolInstance",
      "id": "21196499-F8AC-4305-AA0F-5B1E451FA761"
    },
    {
      "class": "symbolInstance",
      "id": "2AA1A9CC-F02F-4FED-AAD0-A78A58AC92EF"
    },
    {
      "class": "symbolInstance",
      "id": "F7C00B1E-27E4-4D5E-9F00-052CD5BC89CF"
    },
    {
      "class": "symbolInstance",
      "id": "06B67DB6-911B-4222-812A-58932A8C7242"
    },
    {
      "class": "symbolInstance",
      "id": "D8D98756-565D-41CE-9BB5-70F1DD91FA73"
    },
    {
      "class": "symbolInstance",
      "id": "C03EB40D-18A0-4B03-80F8-7C2B5E37E6AC"
    },
    {
      "class": "symbolInstance",
      "id": "ACAFE779-CB35-40A0-950E-7383182088B6"
    },
    {
      "class": "symbolInstance",
      "id": "F023C78A-7C95-4108-B89C-31A356E013EF"
    },
    {
      "class": "symbolInstance",
      "id": "130DB519-CDB0-459E-84CB-23786C0A198E"
    },
    {
      "class": "symbolInstance",
      "id": "ECF511BE-C4CD-4E31-A352-C859A711A4A3"
    },
    {
      "class": "symbolInstance",
      "id": "BFFDDF95-CDCB-4D1D-81C4-4060939F434F"
    },
    {
      "class": "symbolInstance",
      "id": "8D12F144-51BC-4EEE-868D-022D6D7DA9CE"
    },
    {
      "class": "symbolInstance",
      "id": "4FDBDC35-FFA8-4BD5-BEEF-A16F3EBDA62F"
    },
    {
      "class": "symbolInstance",
      "id": "0BE15183-9B6A-423A-ACE9-625E3177A804"
    },
    {
      "class": "symbolInstance",
      "id": "394FF846-C708-4AA4-9504-C5E014305A80"
    },
    {
      "class": "symbolInstance",
      "id": "57EE1684-CBB7-48CE-9E94-686ADE5A95DF"
    },
    {
      "class": "symbolInstance",
      "id": "3247B9A6-7C90-422D-97C5-58E2689DB2DA"
    },
    {
      "class": "symbolInstance",
      "id": "AE415839-F3A6-4912-ABB3-29F3C153F817"
    },
    {
      "class": "symbolInstance",
      "id": "B42B6ED7-4E84-4491-8971-DCF770E73B9F"
    },
    {
      "class": "symbolInstance",
      "id": "E4B32A44-ACD3-4DAC-AF5F-057738725A4E"
    },
    {
      "class": "symbolInstance",
      "id": "0DA56343-CF6E-4DFA-947A-F10E7DC0F04E"
    },
    {
      "class": "symbolInstance",
      "id": "DA8C6482-084A-4053-B227-1FF73C249079"
    },
    {
      "class": "symbolInstance",
      "id": "29E38529-BE3F-4554-97A5-C8E65098B018"
    },
    {
      "class": "symbolInstance",
      "id": "FD404397-1C00-4B7F-B30B-2649D92A09F6"
    },
    {
      "class": "symbolInstance",
      "id": "6C1AA886-803F-4B33-8478-D5884C7405DE"
    },
    {
      "class": "symbolInstance",
      "id": "1CA5A4E5-D305-40E8-B0B1-1D2FF0780AF7"
    },
    {
      "class": "symbolInstance",
      "id": "DA04A566-F3E9-4032-802E-E8EE3E82FD4B"
    },
    {
      "class": "symbolInstance",
      "id": "1309BB41-B12B-452D-BB9F-E8554F5C6B38"
    },
    {
      "class": "symbolInstance",
      "id": "C90ACFD7-99BB-4728-92D2-86F18FC3346C"
    },
    {
      "class": "symbolInstance",
      "id": "91BA755E-9B31-442E-B25B-ED7F6C18E952"
    },
    {
      "class": "symbolInstance",
      "id": "766C8E0B-9610-4B56-BF0C-DE2AB90D1FEE"
    },
    {
      "class": "symbolInstance",
      "id": "888D233D-83A4-485B-A171-E74D6C540B11"
    },
    {
      "class": "symbolInstance",
      "id": "1F47F554-90B7-477A-AB12-C5A47038578C"
    }
  ],
  "name": "timeline",
  "nameIsFixed": true,
  "resizingConstraint": 63,
  "resizingType": 0,
  "rotation": 0,
  "shouldBreakMaskChain": false,
  "style": {
    "_class": "style",
    "endDecorationType": 0,
    "miterLimit": 10,
    "startDecorationType": 0
  }
}