{
  "_class": "group",
  "do_objectID": "97F31E0F-B1EA-4CBE-853A-3E09A3CB1945",
  "exportOptions": {
    "_class": "exportOptions",
    "exportFormats": [
    ],
    "includedLayerIds": [
    ],
    "layerOptions": 0,
    "shouldTrim": false
  },
  "frame": {
    "_class": "rect",
    "constrainProportions": false,
    "height": 40,
    "width": 220,
    "x": 0,
    "y": 104
  },
  "hasClickThrough": false,
  "isFlippedHorizontal": false,
  "isFlippedVertical": false,
  "isLocked": false,
  "isVisible": true,
  "layerListExpandedType": 0,
  "layers": [
    {
      "class": "group",
      "id": "8631CE46-FA92-485A-A1C9-06CB0AC60E2E"
    },
    {
      "class": "symbolInstance",
      "id": "709E013A-3E3C-4F58-9839-0C13896D0B7B"
    }
  ],
  "name": "sidebar/molecules/menu-item/",
  "nameIsFixed": false,
  "resizingConstraint": 63,
  "resizingType": 0,
  "rotation": 0,
  "shouldBreakMaskChain": false,
  "style": {
    "_class": "style",
    "endDecorationType": 0,
    "miterLimit": 10,
    "startDecorationType": 0
  }
}