{
  "_class": "shapeGroup",
  "clippingMaskMode": 0,
  "do_objectID": "A7E23496-8C40-4839-A246-52FA42034A6B",
  "exportOptions": {
    "_class": "exportOptions",
    "exportFormats": [
    ],
    "includedLayerIds": [
    ],
    "layerOptions": 0,
    "shouldTrim": false
  },
  "frame": {
    "_class": "rect",
    "constrainProportions": true,
    "height": 16.00000000000007,
    "width": 16,
    "x": -8.881784197001256e-16,
    "y": -2.664535259100377e-14
  },
  "hasClickThrough": false,
  "hasClippingMask": true,
  "isFlippedHorizontal": false,
  "isFlippedVertical": false,
  "isLocked": false,
  "isVisible": true,
  "layerListExpandedType": 0,
  "layers": [
    {
      "class": "shapePath",
      "id": "A9FDD4CF-0DFF-403A-9A73-D8241777CDAA"
    },
    {
      "class": "shapePath",
      "id": "AEE8C581-9C57-46DE-9C73-937931CCC4DF"
    },
    {
      "class": "shapePath",
      "id": "4596D73C-5778-4DD5-824D-6B5ECBF0C3C5"
    }
  ],
  "name": "Mask",
  "nameIsFixed": false,
  "resizingConstraint": 63,
  "resizingType": 0,
  "rotation": 0,
  "shouldBreakMaskChain": false,
  "style": {
    "_class": "style",
    "endDecorationType": 0,
    "fills": [
      {
        "_class": "fill",
        "color": {
          "_class": "color",
          "alpha": 1,
          "blue": 0,
          "green": 0,
          "red": 0
        },
        "fillType": 0,
        "isEnabled": true,
        "noiseIndex": 0,
        "noiseIntensity": 0,
        "patternFillType": 1,
        "patternTileScale": 1
      }
    ],
    "miterLimit": 10,
    "startDecorationType": 0
  },
  "windingRule": 0
}