{
  "_class": "group",
  "do_objectID": "A212CA0C-85C1-42EA-B8AF-A3E965731BFB",
  "exportOptions": {
    "_class": "exportOptions",
    "exportFormats": [
    ],
    "includedLayerIds": [
    ],
    "layerOptions": 0,
    "shouldTrim": false
  },
  "frame": {
    "_class": "rect",
    "constrainProportions": false,
    "height": 28,
    "width": 647,
    "x": 607,
    "y": 1262
  },
  "hasClickThrough": false,
  "isFlippedHorizontal": false,
  "isFlippedVertical": false,
  "isLocked": false,
  "isVisible": true,
  "layerListExpandedType": 2,
  "layers": [
    {
      "class": "shapeGroup",
      "id": "672F959E-B749-4059-9FB9-479948E95A61"
    },
    {
      "class": "shapeGroup",
      "id": "3F501FCC-23E9-4B26-9F94-4669501A7E3C"
    },
    {
      "class": "shapeGroup",
      "id": "2E12E307-DDEF-46D7-8C84-1D3FCEE65D9C"
    },
    {
      "class": "text",
      "id": "3ED8FA03-2DF7-452F-A291-4B2C55197FBD"
    }
  ],
  "name": "new_epic copy 21",
  "nameIsFixed": true,
  "resizingConstraint": 63,
  "resizingType": 0,
  "rotation": 0,
  "shouldBreakMaskChain": false,
  "style": {
    "_class": "style",
    "endDecorationType": 0,
    "miterLimit": 10,
    "startDecorationType": 0
  }
}